<?xml version="1.0" encoding="UTF-8"?>
<!-- Generated by org.testng.reporters.JUnitReportReporter -->
<testsuite hostname="REM-LT-221216B" failures="0" tests="9" name="com.unosquare.newClassApi" time="5.410" errors="0" timestamp="2022-12-30T16:57:54 CST" skipped="0">
  <testcase classname="com.unosquare.newClassApi" name="getListUsers" time="0.231"/>
  <system-out>
    <![CDATA[Sucess 200 validation
{"page":2,"per_page":6,"total":12,"total_pages":2,"data":[{"id":7,"email":"michael.lawson@reqres.in","first_name":"Michael","last_name":"Lawson","avatar":"https://reqres.in/img/faces/7-image.jpg"},{"id":8,"email":"lindsay.ferguson@reqres.in","first_name":"Lindsay","last_name":"Ferguson","avatar":"https://reqres.in/img/faces/8-image.jpg"},{"id":9,"email":"tobias.funke@reqres.in","first_name":"Tobias","last_name":"Funke","avatar":"https://reqres.in/img/faces/9-image.jpg"},{"id":10,"email":"byron.fields@reqres.in","first_name":"Byron","last_name":"Fields","avatar":"https://reqres.in/img/faces/10-image.jpg"},{"id":11,"email":"george.edwards@reqres.in","first_name":"George","last_name":"Edwards","avatar":"https://reqres.in/img/faces/11-image.jpg"},{"id":12,"email":"rachel.howell@reqres.in","first_name":"Rachel","last_name":"Howell","avatar":"https://reqres.in/img/faces/12-image.jpg"}],"support":{"url":"https://reqres.in/#support-heading","text":"To keep ReqRes free, contributions towards server costs are appreciated!"}}]]>
  </system-out>
  <testcase classname="com.unosquare.newClassApi" name="PostRegisterUnsuccessful" time="0.438"/>
  <system-out>
    <![CDATA[{"error":"Missing password"}]]>
  </system-out>
  <testcase classname="com.unosquare.newClassApi" name="getUser2" time="0.166"/>
  <system-out>
    <![CDATA[Sucess 200 validation
{"data":{"id":2,"email":"janet.weaver@reqres.in","first_name":"Janet","last_name":"Weaver","avatar":"https://reqres.in/img/faces/2-image.jpg"},"support":{"url":"https://reqres.in/#support-heading","text":"To keep ReqRes free, contributions towards server costs are appreciated!"}}]]>
  </system-out>
  <testcase classname="com.unosquare.newClassApi" name="PostRegister" time="0.455"/>
  <system-out>
    <![CDATA[{"id":4,"token":"QpwL5tke4Pnpja7X4"}]]>
  </system-out>
  <testcase classname="com.unosquare.newClassApi" name="PostCreate" time="1.824"/>
  <system-out>
    <![CDATA[{"name":"morpheus","job":"leader","id":"432","createdAt":"2022-12-30T22:57:50.602Z"}]]>
  </system-out>
  <testcase classname="com.unosquare.newClassApi" name="PostLogin" time="0.450"/>
  <system-out>
    <![CDATA[{"token":"QpwL5tke4Pnpja7X4"}]]>
  </system-out>
  <testcase classname="com.unosquare.newClassApi" name="PutUser" time="0.424"/>
  <system-out>
    <![CDATA[{"name":"morpheus","job":"zion resident","id":"941","createdAt":"2022-12-30T22:57:52.417Z"}]]>
  </system-out>
  <testcase classname="com.unosquare.newClassApi" name="getResource" time="0.482"/>
  <system-out>
    <![CDATA[Sucess 200 validation
{"page":1,"per_page":6,"total":12,"total_pages":2,"data":[{"id":1,"name":"cerulean","year":2000,"color":"#98B2D1","pantone_value":"15-4020"},{"id":2,"name":"fuchsia rose","year":2001,"color":"#C74375","pantone_value":"17-2031"},{"id":3,"name":"true red","year":2002,"color":"#BF1932","pantone_value":"19-1664"},{"id":4,"name":"aqua sky","year":2003,"color":"#7BC4C4","pantone_value":"14-4811"},{"id":5,"name":"tigerlily","year":2004,"color":"#E2583E","pantone_value":"17-1456"},{"id":6,"name":"blue turquoise","year":2005,"color":"#53B0AE","pantone_value":"15-5217"}],"support":{"url":"https://reqres.in/#support-heading","text":"To keep ReqRes free, contributions towards server costs are appreciated!"}}]]>
  </system-out>
  <testcase classname="com.unosquare.newClassApi" name="getListUnknown" time="0.940"/>
  <system-out>
    <![CDATA[Sucess 200 validation
{"data":{"id":2,"name":"fuchsia rose","year":2001,"color":"#C74375","pantone_value":"17-2031"},"support":{"url":"https://reqres.in/#support-heading","text":"To keep ReqRes free, contributions towards server costs are appreciated!"}}]]>
  </system-out>
</testsuite> <!-- com.unosquare.newClassApi -->
